<?xml version="1.0" encoding="UTF-8"?>
<kml xmlns="http://www.opengis.net/kml/2.2"><Document><Style id="blueLine"><LineStyle><color>ffff0000</color><width>4</width></LineStyle></Style><Style id="redLine"><LineStyle><color>ff0000ff</color><width>4</width></LineStyle></Style><Style id="greenLine"><LineStyle><color>ff009900</color><width>4</width></LineStyle></Style><Style id="orangeLine"><LineStyle><color>ff00ccff</color><width>4</width></LineStyle></Style><Style id="pinkLine"><LineStyle><color>ffff33ff</color><width>4</width></LineStyle></Style><Style id="brownLine"><LineStyle><color>ff66a1cc</color><width>4</width></LineStyle></Style><Style id="purpleLine"><LineStyle><color>ffcc00cc</color><width>4</width></LineStyle></Style><Style id="yellowLine"><LineStyle><color>ff61f2f2</color><width>4</width></LineStyle></Style><Placemark><styleUrl>#blueLine</styleUrl><LineString><coordinates>13.37363,49.73843,0.0
13.37357,49.73835,0.0
13.3734,49.73831,0.0
13.37365,49.73786,0.0
13.37178,49.73727,0.0
13.37161,49.73724,0.0
13.37112,49.7379,0.0
13.37084,49.73809,0.0
13.37124,49.7398,0.0
13.37219,49.73994,0.0
13.37281,49.73999,0.0
13.37761,49.74019,0.0
13.37959,49.74051,0.0
13.38213,49.74106,0.0
13.38216,49.74111,0.0
13.38283,49.74129,0.0
13.38288,49.74133,0.0
13.385,49.74179,0.0
13.38653,49.74204,0.0
13.38744,49.74221,0.0
13.39285,49.74388,0.0
13.3931,49.74386,0.0
13.39329,49.74377,0.0
13.39337,49.74363,0.0
13.39334,49.74349,0.0
13.39305,49.74346,0.0
13.39273,49.74349,0.0
13.39231,49.74382,0.0
13.3917,49.74446,0.0
13.39122,49.74532,0.0
13.39067,49.74696,0.0
13.39546,49.74771,0.0
13.39834,49.74824,0.0
13.39957,49.74835,0.0
13.40135,49.74842,0.0
13.41551,49.74772,0.0
13.42844,49.74681,0.0
13.43044,49.74674,0.0
13.44603,49.74655,0.0
13.45299,49.74634,0.0
13.47009,49.74613,0.0
13.48465,49.74574,0.0
13.48919,49.74556,0.0
13.49042,49.74545,0.0
13.49241,49.74511,0.0
13.4938,49.74477,0.0
13.49499,49.7444,0.0
13.49652,49.7438,0.0
13.49812,49.74301,0.0
13.50509,49.73918,0.0
13.50647,49.7384,0.0
13.50701,49.73803,0.0
13.50757,49.73755,0.0
13.50862,49.73639,0.0
13.50899,49.7361,0.0
13.50922,49.73598,0.0
13.50974,49.73576,0.0
13.51063,49.73559,0.0
13.5112,49.73559,0.0
13.51167,49.73565,0.0
13.51232,49.73583,0.0
13.51261,49.73596,0.0
13.51298,49.73617,0.0
13.51382,49.7368,0.0
13.51458,49.73728,0.0
13.51541,49.73758,0.0
13.51649,49.73787,0.0
13.51771,49.73807,0.0
13.5193,49.73827,0.0
13.52625,49.73889,0.0
13.5278,49.73906,0.0
13.52989,49.73933,0.0
13.53179,49.73963,0.0
13.53456,49.74016,0.0
13.53624,49.74055,0.0
13.53818,49.74105,0.0
13.54074,49.74181,0.0
13.54341,49.74272,0.0
13.54564,49.74359,0.0
13.54973,49.74534,0.0
13.55186,49.7462,0.0
13.55398,49.747,0.0
13.55677,49.74797,0.0
13.5595,49.74882,0.0
13.56321,49.74985,0.0
13.56657,49.75065,0.0
13.56947,49.75125,0.0
13.57339,49.75194,0.0
13.57629,49.75235,0.0
13.62283,49.7578,0.0
13.62454,49.75804,0.0
13.62617,49.75832,0.0
13.62854,49.75879,0.0
13.63101,49.75938,0.0
13.63361,49.76013,0.0
13.63472,49.76048,0.0
13.63629,49.76104,0.0
13.63865,49.76196,0.0
13.64086,49.76296,0.0
13.64205,49.76354,0.0
13.64357,49.76436,0.0
13.64537,49.76541,0.0
13.64924,49.76782,0.0
13.65209,49.76953,0.0
13.65489,49.77103,0.0
13.65665,49.77188,0.0
13.65901,49.77297,0.0
13.6605,49.7736,0.0
13.66375,49.7749,0.0
13.66591,49.77569,0.0
13.66835,49.77652,0.0
13.67135,49.77745,0.0
13.67377,49.77813,0.0
13.67663,49.77886,0.0
13.67951,49.77951,0.0
13.6832,49.78025,0.0
13.68782,49.781,0.0
13.69,49.78129,0.0
13.69207,49.78151,0.0
13.69512,49.78172,0.0
13.69801,49.78177,0.0
13.7015,49.78171,0.0
13.7034,49.78171,0.0
13.70502,49.78179,0.0
13.70644,49.78193,0.0
13.70745,49.78206,0.0
13.70879,49.7823,0.0
13.71038,49.78266,0.0
13.71166,49.78301,0.0
13.71398,49.78385,0.0
13.71602,49.78482,0.0
13.71946,49.78676,0.0
13.72346,49.78892,0.0
13.72583,49.79009,0.0
13.72754,49.79086,0.0
13.72903,49.7915,0.0
13.73154,49.79249,0.0
13.74501,49.79734,0.0
13.74725,49.79819,0.0
13.74894,49.79891,0.0
13.7501,49.79949,0.0
13.75135,49.80022,0.0
13.75231,49.80086,0.0
13.75363,49.80191,0.0
13.75425,49.80249,0.0
13.75499,49.80327,0.0
13.75594,49.8045,0.0
13.75668,49.80575,0.0
13.75697,49.80635,0.0
13.75958,49.81246,0.0
13.7601,49.81349,0.0
13.76097,49.8148,0.0
13.76168,49.81568,0.0
13.76231,49.81633,0.0
13.76331,49.81722,0.0
13.76452,49.81814,0.0
13.76633,49.81926,0.0
13.76987,49.82124,0.0
13.77154,49.82224,0.0
13.77315,49.82334,0.0
13.77431,49.82423,0.0
13.77604,49.82573,0.0
13.77713,49.82685,0.0
13.77838,49.82824,0.0
13.78036,49.83058,0.0
13.78187,49.83212,0.0
13.78285,49.83294,0.0
13.7841,49.83381,0.0
13.78539,49.83456,0.0
13.78627,49.835,0.0
13.78781,49.83565,0.0
13.78898,49.83606,0.0
13.79007,49.83639,0.0
13.79126,49.83669,0.0
13.79325,49.83709,0.0
13.79889,49.83796,0.0
13.82838,49.84237,0.0
13.83227,49.84302,0.0
13.83535,49.84358,0.0
13.8383,49.84418,0.0
13.84293,49.8452,0.0
13.84749,49.84632,0.0
13.85018,49.84705,0.0
13.8531,49.84787,0.0
13.85624,49.84883,0.0
13.85923,49.84979,0.0
13.86547,49.85197,0.0
13.87093,49.85416,0.0
13.87489,49.85586,0.0
13.87897,49.85776,0.0
13.88066,49.85859,0.0
13.88362,49.86011,0.0
13.88607,49.86144,0.0
13.88785,49.86244,0.0
13.89132,49.86449,0.0
13.89622,49.86761,0.0
13.8988,49.86941,0.0
13.90067,49.87077,0.0
13.90488,49.87405,0.0
13.90734,49.87612,0.0
13.90962,49.87816,0.0
13.91328,49.88159,0.0
13.91543,49.88344,0.0
13.91643,49.88422,0.0
13.91832,49.88552,0.0
13.91985,49.88643,0.0
13.92093,49.88699,0.0
13.92201,49.88751,0.0
13.92316,49.888,0.0
13.92526,49.88877,0.0
13.92659,49.88919,0.0
13.92848,49.88969,0.0
13.93683,49.89163,0.0
13.94039,49.89258,0.0
13.94322,49.89345,0.0
13.94532,49.89416,0.0
13.94828,49.89527,0.0
13.95072,49.89631,0.0
13.95376,49.89773,0.0
13.95566,49.89868,0.0
13.96132,49.90166,0.0
13.96441,49.90323,0.0
13.9678,49.90483,0.0
13.97141,49.90632,0.0
13.97393,49.90727,0.0
13.98467,49.91113,0.0
13.98938,49.91297,0.0
13.99302,49.91454,0.0
13.99547,49.9157,0.0
13.99842,49.9172,0.0
14.0003,49.91822,0.0
14.00285,49.91969,0.0
14.0059,49.92167,0.0
14.00871,49.92377,0.0
14.01028,49.92507,0.0
14.01224,49.92681,0.0
14.01372,49.92819,0.0
14.02111,49.93541,0.0
14.02385,49.93787,0.0
14.02512,49.93895,0.0
14.02695,49.94039,0.0
14.03,49.94259,0.0
14.03329,49.94471,0.0
14.03677,49.94672,0.0
14.04022,49.94849,0.0
14.0429,49.94976,0.0
14.04522,49.95077,0.0
14.04733,49.95162,0.0
14.05122,49.95305,0.0
14.05527,49.95437,0.0
14.05889,49.95538,0.0
14.06219,49.95621,0.0
14.06591,49.95704,0.0
14.07561,49.95909,0.0
14.07795,49.95968,0.0
14.07953,49.9601,0.0
14.08127,49.96062,0.0
14.08266,49.96108,0.0
14.08463,49.96177,0.0
14.08681,49.9626,0.0
14.0885,49.96332,0.0
14.0901,49.96403,0.0
14.09319,49.96559,0.0
14.09446,49.96629,0.0
14.09741,49.96807,0.0
14.10291,49.97173,0.0
14.10569,49.97348,0.0
14.10874,49.97518,0.0
14.11046,49.97604,0.0
14.11181,49.97663,0.0
14.11385,49.97743,0.0
14.11481,49.97775,0.0
14.11586,49.97808,0.0
14.1183,49.9787,0.0
14.11922,49.9789,0.0
14.12106,49.97923,0.0
14.12515,49.9798,0.0
14.12708,49.98012,0.0
14.12837,49.98038,0.0
14.12955,49.98068,0.0
14.13116,49.98118,0.0
14.13207,49.98153,0.0
14.1336,49.98225,0.0
14.13507,49.98312,0.0
14.13662,49.98424,0.0
14.13903,49.98616,0.0
14.14065,49.98735,0.0
14.14226,49.98833,0.0
14.14354,49.98896,0.0
14.14528,49.98958,0.0
14.14701,49.99005,0.0
14.14948,49.99056,0.0
14.15482,49.99152,0.0
14.15667,49.99194,0.0
14.15769,49.99221,0.0
14.15868,49.99253,0.0
14.15985,49.99298,0.0
14.16059,49.99332,0.0
14.16187,49.99405,0.0
14.16255,49.99453,0.0
14.16346,49.99525,0.0
14.16402,49.99575,0.0
14.16516,49.99693,0.0
14.16796,50.00038,0.0
14.1693,50.00189,0.0
14.17039,50.00295,0.0
14.17099,50.00347,0.0
14.17287,50.00495,0.0
14.17523,50.00648,0.0
14.17702,50.00748,0.0
14.17901,50.00849,0.0
14.18523,50.01135,0.0
14.18807,50.01269,0.0
14.19129,50.01439,0.0
14.19256,50.01512,0.0
14.19493,50.01662,0.0
14.19634,50.01758,0.0
14.19798,50.0188,0.0
14.20051,50.0209,0.0
14.20183,50.02209,0.0
14.20527,50.02549,0.0
14.2076,50.02773,0.0
14.20991,50.02973,0.0
14.21166,50.03105,0.0
14.21315,50.03211,0.0
14.21429,50.03286,0.0
14.21662,50.03425,0.0
14.21853,50.03528,0.0
14.22121,50.03658,0.0
14.22267,50.03723,0.0
14.22509,50.03822,0.0
14.22875,50.03957,0.0
14.23288,50.041,0.0
14.23612,50.04207,0.0
14.24301,50.04425,0.0
14.24816,50.04577,0.0
14.25063,50.04644,0.0
14.25353,50.04714,0.0
14.25482,50.04741,0.0
14.25653,50.04774,0.0
14.25911,50.04814,0.0
14.26025,50.04829,0.0
14.26294,50.04858,0.0
14.26606,50.04878,0.0
14.26821,50.04886,0.0
14.27416,50.049,0.0
14.27596,50.04914,0.0
14.27876,50.04947,0.0
14.28442,50.05046,0.0
14.28732,50.05092,0.0
14.29086,50.05133,0.0
14.33542,50.05555,0.0
14.33958,50.0559,0.0
14.34017,50.05589,0.0
14.34043,50.05581,0.0
14.34066,50.05566,0.0
14.34072,50.05549,0.0
14.34065,50.05526,0.0
14.34022,50.0548,0.0
14.34066,50.05467,0.0
14.34105,50.0546,0.0
14.34164,50.05457,0.0
14.34488,50.05484,0.0
14.34572,50.05485,0.0
14.34612,50.05482,0.0
14.3467,50.05476,0.0
14.34734,50.05463,0.0
14.34825,50.05436,0.0
14.34889,50.0541,0.0
14.34932,50.0539,0.0
14.34984,50.05357,0.0
14.35044,50.05306,0.0
14.35089,50.05256,0.0
14.3509,50.05244,0.0
14.3513,50.05172,0.0
14.35161,50.0503,0.0
14.35181,50.04963,0.0
14.3521,50.04933,0.0
14.35265,50.04905,0.0
14.35297,50.04897,0.0
14.3535,50.04898,0.0
14.35391,50.04902,0.0
14.35567,50.04939,0.0
14.35649,50.04944,0.0
14.36089,50.0489,0.0
14.36167,50.04892,0.0
14.36221,50.04902,0.0
14.36264,50.04916,0.0
14.36298,50.04932,0.0
14.36353,50.04972,0.0
14.36443,50.05056,0.0
14.36481,50.05078,0.0
14.36523,50.05096,0.0
14.36583,50.05113,0.0
14.36629,50.05122,0.0
14.36747,50.05132,0.0
14.36814,50.05142,0.0
14.36882,50.05163,0.0
14.36929,50.05186,0.0
14.36959,50.05205,0.0
14.36986,50.05229,0.0
14.37028,50.0528,0.0
14.37095,50.05378,0.0
14.37152,50.05446,0.0
14.37186,50.05479,0.0
14.3721,50.055,0.0
14.37247,50.05522,0.0
14.37296,50.05543,0.0
14.37385,50.05562,0.0
14.37674,50.05566,0.0
14.37847,50.0558,0.0
14.37918,50.05591,0.0
14.38004,50.0561,0.0
14.38374,50.05703,0.0
14.38577,50.05772,0.0
14.38643,50.05788,0.0
14.38709,50.05791,0.0
14.38877,50.05774,0.0
14.38898,50.05775,0.0
14.3892,50.0579,0.0
14.38958,50.05876,0.0
14.38977,50.05903,0.0
14.38987,50.05909,0.0
14.39001,50.05912,0.0
14.39195,50.05915,0.0
14.39265,50.05926,0.0
14.39358,50.05964,0.0
14.39453,50.06013,0.0
14.3953,50.06048,0.0
14.39583,50.06068,0.0
14.39637,50.06084,0.0
14.39753,50.06108,0.0
14.3992,50.06127,0.0
14.4009,50.06153,0.0
14.4031,50.06202,0.0
14.40345,50.06218,0.0
14.40557,50.06295,0.0
14.40396,50.0648,0.0
14.40341,50.06579,0.0
14.40315,50.06621,0.0
14.40305,50.06627,0.0
14.40172,50.0688,0.0
14.40578,50.06933,0.0
14.4056,50.0696,0.0
14.40738,50.06978,0.0
14.4104,50.07003,0.0
14.41052,50.07203,0.0
14.41029,50.07283,0.0
14.40959,50.0741,0.0
14.40919,50.0745,0.0
14.40898,50.07489,0.0
14.4091,50.0752,0.0
14.40951,50.07539,0.0
14.41328,50.07575,0.0
14.41399,50.07568,0.0
14.41471,50.0756,0.0
14.41763,50.07579,0.0
14.4187,50.07583,0.0
14.4191,50.0758,0.0
14.42073,50.07569,0.0
14.42907,50.07545,0.0
14.4292,50.07364,0.0
14.42927,50.07358,0.0
14.42942,50.07358,0.0
14.4355,50.07448,0.0
14.43696,50.07471,0.0
14.43713,50.07478,0.0
14.43749,50.07498,0.0
14.43762,50.07515,0.0
14.43774,50.0754,0.0
14.43775,50.07553,0.0</coordinates></LineString></Placemark><Placemark><styleUrl>#redLine</styleUrl><LineString><coordinates>13.37363,49.73843,0.0
13.37357,49.73835,0.0
13.3734,49.73831,0.0
13.37365,49.73786,0.0
13.37178,49.73727,0.0
13.37161,49.73724,0.0
13.37112,49.7379,0.0
13.37084,49.73809,0.0
13.37124,49.7398,0.0
13.37219,49.73994,0.0
13.37281,49.73999,0.0
13.37761,49.74019,0.0
13.37959,49.74051,0.0
13.38213,49.74106,0.0
13.38216,49.74111,0.0
13.38283,49.74129,0.0
13.38288,49.74133,0.0
13.385,49.74179,0.0
13.38653,49.74204,0.0
13.38744,49.74221,0.0
13.39285,49.74388,0.0
13.3931,49.74386,0.0
13.39329,49.74377,0.0
13.39337,49.74363,0.0
13.39334,49.74349,0.0
13.39305,49.74346,0.0
13.39273,49.74349,0.0
13.39231,49.74382,0.0
13.3917,49.74446,0.0
13.39122,49.74532,0.0
13.39067,49.74696,0.0
13.39546,49.74771,0.0
13.39834,49.74824,0.0
13.39957,49.74835,0.0
13.40135,49.74842,0.0
13.41551,49.74772,0.0
13.42844,49.74681,0.0
13.43044,49.74674,0.0
13.44603,49.74655,0.0
13.45299,49.74634,0.0
13.47009,49.74613,0.0
13.48465,49.74574,0.0
13.48919,49.74556,0.0
13.49042,49.74545,0.0
13.49241,49.74511,0.0
13.4938,49.74477,0.0
13.49499,49.7444,0.0
13.49652,49.7438,0.0
13.49812,49.74301,0.0
13.50509,49.73918,0.0
13.50647,49.7384,0.0
13.50701,49.73803,0.0
13.50757,49.73755,0.0
13.50862,49.73639,0.0
13.50899,49.7361,0.0
13.50922,49.73598,0.0
13.50974,49.73576,0.0
13.51063,49.73559,0.0
13.5112,49.73559,0.0
13.51167,49.73565,0.0
13.51232,49.73583,0.0
13.51261,49.73596,0.0
13.51298,49.73617,0.0
13.51382,49.7368,0.0
13.51458,49.73728,0.0
13.51541,49.73758,0.0
13.51649,49.73787,0.0
13.51771,49.73807,0.0
13.5193,49.73827,0.0
13.52625,49.73889,0.0
13.5278,49.73906,0.0
13.52989,49.73933,0.0
13.53179,49.73963,0.0
13.53456,49.74016,0.0
13.53624,49.74055,0.0
13.53818,49.74105,0.0
13.54074,49.74181,0.0
13.54341,49.74272,0.0
13.54564,49.74359,0.0
13.54973,49.74534,0.0
13.55186,49.7462,0.0
13.55398,49.747,0.0
13.55677,49.74797,0.0
13.5595,49.74882,0.0
13.56321,49.74985,0.0
13.56657,49.75065,0.0
13.56947,49.75125,0.0
13.57339,49.75194,0.0
13.57629,49.75235,0.0
13.62283,49.7578,0.0
13.62454,49.75804,0.0
13.62617,49.75832,0.0
13.62854,49.75879,0.0
13.63101,49.75938,0.0
13.63361,49.76013,0.0
13.63472,49.76048,0.0
13.63629,49.76104,0.0
13.63865,49.76196,0.0
13.64086,49.76296,0.0
13.64205,49.76354,0.0
13.64357,49.76436,0.0
13.64537,49.76541,0.0
13.64924,49.76782,0.0
13.65209,49.76953,0.0
13.65489,49.77103,0.0
13.65665,49.77188,0.0
13.65901,49.77297,0.0
13.6605,49.7736,0.0
13.66375,49.7749,0.0
13.66591,49.77569,0.0
13.66835,49.77652,0.0
13.67135,49.77745,0.0
13.67377,49.77813,0.0
13.67663,49.77886,0.0
13.67951,49.77951,0.0
13.6832,49.78025,0.0
13.68782,49.781,0.0
13.69,49.78129,0.0
13.69207,49.78151,0.0
13.69512,49.78172,0.0
13.69801,49.78177,0.0
13.70291,49.78171,0.0
13.70502,49.78179,0.0
13.70745,49.78206,0.0
13.70879,49.7823,0.0
13.7098,49.78251,0.0
13.71166,49.78301,0.0
13.71398,49.78385,0.0
13.71536,49.78448,0.0
13.71672,49.78521,0.0
13.71946,49.78676,0.0
13.7223,49.78832,0.0
13.7249,49.78964,0.0
13.72754,49.79086,0.0
13.72903,49.7915,0.0
13.73154,49.79249,0.0
13.74501,49.79734,0.0
13.74725,49.79819,0.0
13.74894,49.79891,0.0
13.7501,49.79949,0.0
13.75135,49.80022,0.0
13.75231,49.80086,0.0
13.75363,49.80191,0.0
13.75425,49.80249,0.0
13.75499,49.80327,0.0
13.75594,49.8045,0.0
13.75668,49.80575,0.0
13.75697,49.80635,0.0
13.75958,49.81246,0.0
13.7601,49.81349,0.0
13.76097,49.8148,0.0
13.76168,49.81568,0.0
13.76231,49.81633,0.0
13.76331,49.81722,0.0
13.76452,49.81814,0.0
13.76633,49.81926,0.0
13.76987,49.82124,0.0
13.77154,49.82224,0.0
13.77315,49.82334,0.0
13.77431,49.82423,0.0
13.77604,49.82573,0.0
13.77713,49.82685,0.0
13.77838,49.82824,0.0
13.78036,49.83058,0.0
13.78187,49.83212,0.0
13.78285,49.83294,0.0
13.7841,49.83381,0.0
13.78539,49.83456,0.0
13.78632,49.83502,0.0
13.78781,49.83565,0.0
13.78898,49.83606,0.0
13.79007,49.83639,0.0
13.79126,49.83669,0.0
13.79325,49.83709,0.0
13.79889,49.83796,0.0
13.82838,49.84237,0.0
13.83227,49.84302,0.0
13.83535,49.84358,0.0
13.84052,49.84465,0.0
13.84533,49.84577,0.0
13.84849,49.84659,0.0
13.8531,49.84787,0.0
13.85624,49.84883,0.0
13.85923,49.84979,0.0
13.86547,49.85197,0.0
13.87093,49.85416,0.0
13.87489,49.85586,0.0
13.87665,49.85667,0.0
13.88066,49.85859,0.0
13.88362,49.86011,0.0
13.88607,49.86144,0.0
13.88785,49.86244,0.0
13.89132,49.86449,0.0
13.89303,49.86555,0.0
13.89638,49.86773,0.0
13.89652,49.86776,0.0
13.8969,49.86796,0.0
13.89734,49.86803,0.0
13.89764,49.86796,0.0
13.89791,49.86779,0.0
13.89792,49.86752,0.0
13.89779,49.8673,0.0
13.89751,49.86717,0.0
13.89654,49.86691,0.0
13.8956,49.86879,0.0
13.8956,49.86889,0.0
13.89542,49.86932,0.0
13.89449,49.87116,0.0
13.89417,49.87165,0.0
13.89376,49.87207,0.0
13.89308,49.87309,0.0
13.89307,49.87344,0.0
13.89331,49.87417,0.0
13.89376,49.8743,0.0
13.89448,49.87461,0.0
13.89424,49.87494,0.0
13.89411,49.87537,0.0
13.8941,49.87563,0.0
13.89423,49.87616,0.0
13.8942,49.87626,0.0
13.89407,49.87638,0.0
13.89394,49.87644,0.0
13.89294,49.87667,0.0
13.89239,49.87688,0.0
13.89173,49.87715,0.0
13.8908,49.87762,0.0
13.88968,49.87826,0.0
13.88855,49.87906,0.0
13.88719,49.87989,0.0
13.88707,49.87998,0.0
13.88634,49.88103,0.0
13.8861,49.88147,0.0
13.88514,49.88362,0.0
13.88493,49.88425,0.0
13.88471,49.88456,0.0
13.88455,49.88468,0.0
13.88414,49.8848,0.0
13.8828,49.88536,0.0
13.88195,49.88558,0.0
13.88182,49.8858,0.0
13.88173,49.88614,0.0
13.88173,49.88636,0.0
13.88181,49.88654,0.0
13.88221,49.8868,0.0
13.88325,49.88723,0.0
13.88311,49.88742,0.0
13.88304,49.88761,0.0
13.8831,49.88772,0.0
13.88332,49.88791,0.0
13.88339,49.88815,0.0
13.88331,49.88894,0.0
13.88309,49.88952,0.0
13.88302,49.88994,0.0
13.88303,49.89073,0.0
13.8831,49.89096,0.0
13.88337,49.89127,0.0
13.88391,49.89166,0.0
13.88479,49.89206,0.0
13.88573,49.89262,0.0
13.88629,49.89285,0.0
13.88651,49.89298,0.0
13.8876,49.89399,0.0
13.88845,49.89507,0.0
13.88977,49.89603,0.0
13.88989,49.89621,0.0
13.8899,49.89642,0.0
13.88953,49.89736,0.0
13.88954,49.89788,0.0
13.88945,49.89801,0.0
13.8888,49.8983,0.0
13.88866,49.89846,0.0
13.88876,49.8992,0.0
13.88867,49.89945,0.0
13.88622,49.90164,0.0
13.88585,49.90188,0.0
13.885,49.90232,0.0
13.88375,49.90279,0.0
13.88322,49.90306,0.0
13.88311,49.90323,0.0
13.88326,49.90353,0.0
13.88323,49.90372,0.0
13.88289,49.90405,0.0
13.88254,49.90423,0.0
13.8818,49.90432,0.0
13.88118,49.90452,0.0
13.88097,49.90464,0.0
13.88067,49.90493,0.0
13.88034,49.90514,0.0
13.87921,49.90569,0.0
13.87888,49.90595,0.0
13.87865,49.9062,0.0
13.87849,49.90663,0.0
13.87841,49.90708,0.0
13.87788,49.90836,0.0
13.8776,49.90859,0.0
13.87696,49.90886,0.0
13.87676,49.90907,0.0
13.87615,49.91087,0.0
13.87565,49.91254,0.0
13.87504,49.91376,0.0
13.87515,49.91931,0.0
13.87511,49.9201,0.0
13.87326,49.9231,0.0
13.8704,49.92753,0.0
13.87008,49.92786,0.0
13.86799,49.92939,0.0
13.86714,49.93009,0.0
13.8668,49.93052,0.0
13.86529,49.93274,0.0
13.86435,49.93385,0.0
13.86268,49.93656,0.0
13.86265,49.93672,0.0
13.86274,49.93701,0.0
13.86336,49.93764,0.0
13.86538,49.93938,0.0
13.86631,49.93998,0.0
13.86697,49.94053,0.0
13.86808,49.94151,0.0
13.86888,49.9423,0.0
13.87059,49.94376,0.0
13.87159,49.94481,0.0
13.87206,49.94547,0.0
13.87241,49.94607,0.0
13.87247,49.94651,0.0
13.87228,49.94749,0.0
13.87235,49.94773,0.0
13.87311,49.94896,0.0
13.8736,49.9499,0.0
13.87437,49.95081,0.0
13.87457,49.95111,0.0
13.87464,49.95126,0.0
13.87467,49.95189,0.0
13.87585,49.95434,0.0
13.87596,49.95494,0.0
13.87583,49.9562,0.0
13.87588,49.95762,0.0
13.87604,49.95801,0.0
13.87664,49.9602,0.0
13.87773,49.96181,0.0
13.87803,49.96204,0.0
13.87901,49.96259,0.0
13.87918,49.96273,0.0
13.87956,49.9632,0.0
13.87971,49.96356,0.0
13.88022,49.96543,0.0
13.88056,49.96643,0.0
13.88094,49.96731,0.0
13.88207,49.96854,0.0
13.88242,49.96883,0.0
13.88263,49.96896,0.0
13.88397,49.96953,0.0
13.88416,49.96972,0.0
13.88571,49.98127,0.0
13.88583,49.98171,0.0
13.88637,49.98251,0.0
13.88858,49.98479,0.0
13.89046,49.98701,0.0
13.891,49.98785,0.0
13.89194,49.99017,0.0
13.89181,49.99076,0.0
13.89195,49.99228,0.0
13.89187,49.9925,0.0
13.89163,49.99278,0.0
13.89154,49.99294,0.0
13.89156,49.99317,0.0
13.89165,49.99332,0.0
13.89207,49.99376,0.0
13.89216,49.99431,0.0
13.89236,49.9947,0.0
13.89283,49.99524,0.0
13.89307,49.99544,0.0
13.89321,49.99568,0.0
13.89346,49.99665,0.0
13.89427,49.99746,0.0
13.89424,49.99818,0.0
13.89489,49.99957,0.0
13.89482,49.99982,0.0
13.88986,50.00412,0.0
13.89088,50.00517,0.0
13.8929,50.00707,0.0
13.89414,50.00798,0.0
13.89428,50.00818,0.0
13.89432,50.00834,0.0
13.89427,50.00884,0.0
13.89444,50.00914,0.0
13.89462,50.00926,0.0
13.89483,50.00935,0.0
13.89612,50.00965,0.0
13.89649,50.0098,0.0
13.89784,50.01047,0.0
13.89908,50.01094,0.0
13.9032,50.01211,0.0
13.9038,50.01236,0.0
13.9053,50.01286,0.0
13.9075,50.01384,0.0
13.90628,50.01535,0.0
13.90523,50.01657,0.0
13.9048,50.01724,0.0
13.90452,50.01744,0.0
13.9039,50.01766,0.0
13.90354,50.01783,0.0
13.90333,50.01805,0.0
13.90328,50.01816,0.0
13.90325,50.01835,0.0
13.90377,50.01934,0.0
13.90385,50.01966,0.0
13.90375,50.02058,0.0
13.90387,50.0209,0.0
13.90563,50.02325,0.0
13.90564,50.02344,0.0
13.90556,50.02361,0.0
13.90536,50.02382,0.0
13.90508,50.024,0.0
13.90382,50.02455,0.0
13.90252,50.02539,0.0
13.90204,50.02565,0.0
13.90177,50.02587,0.0
13.90161,50.02607,0.0
13.90151,50.02646,0.0
13.90156,50.02676,0.0
13.90218,50.02897,0.0
13.90244,50.03012,0.0
13.90268,50.03047,0.0
13.90454,50.03262,0.0
13.90526,50.03322,0.0
13.90607,50.03384,0.0
13.90705,50.0344,0.0
13.90796,50.03505,0.0
13.91087,50.03753,0.0
13.91127,50.03781,0.0
13.91192,50.03813,0.0
13.91275,50.03846,0.0
13.9141,50.03885,0.0
13.91552,50.03947,0.0
13.91603,50.03958,0.0
13.91685,50.0397,0.0
13.91726,50.03971,0.0
13.91737,50.03967,0.0
13.91756,50.03952,0.0
13.91821,50.03857,0.0
13.9183,50.03828,0.0
13.9183,50.03803,0.0
13.91822,50.03771,0.0
13.91822,50.03771,0.0
13.91808,50.0372,0.0
13.91814,50.03708,0.0
13.91825,50.03701,0.0
13.91846,50.03703,0.0
13.91858,50.0371,0.0
13.91866,50.03748,0.0
13.91875,50.03759,0.0
13.91898,50.03765,0.0
13.91949,50.03762,0.0
13.91948,50.03796,0.0
13.91858,50.0393,0.0
13.91861,50.03943,0.0
13.91874,50.03949,0.0
13.92039,50.03995,0.0
13.92146,50.04017,0.0
13.92214,50.03955,0.0
13.92401,50.03816,0.0
13.9243,50.03767,0.0
13.9246,50.03672,0.0
13.92499,50.03644,0.0
13.92503,50.03635,0.0
13.92498,50.0362,0.0
13.92473,50.03597,0.0
13.9246,50.03578,0.0
13.92464,50.03529,0.0
13.92457,50.03514,0.0
13.92447,50.03507,0.0
13.92409,50.03501,0.0
13.92343,50.03509,0.0
13.92312,50.0351,0.0
13.923,50.0351,0.0
13.92282,50.03503,0.0
13.92234,50.03477,0.0
13.92205,50.03455,0.0
13.92157,50.0339,0.0
13.92157,50.03378,0.0
13.92174,50.03371,0.0
13.92192,50.03372,0.0
13.92229,50.03391,0.0
13.92245,50.03404,0.0
13.92282,50.03417,0.0
13.92346,50.03431,0.0
13.92387,50.0343,0.0
13.92421,50.03423,0.0
13.9249,50.0339,0.0
13.92522,50.03381,0.0
13.92622,50.03368,0.0
13.92733,50.03342,0.0
13.92805,50.03333,0.0
13.92874,50.03333,0.0
13.92918,50.03337,0.0
13.92958,50.03352,0.0
13.92999,50.03375,0.0
13.93126,50.03466,0.0
13.93148,50.03475,0.0
13.93203,50.03571,0.0
13.93284,50.03645,0.0
13.93357,50.03699,0.0
13.93453,50.03743,0.0
13.9349,50.03752,0.0
13.93537,50.03756,0.0
13.93735,50.03738,0.0
13.9381,50.03742,0.0
13.93948,50.03786,0.0
13.94021,50.03805,0.0
13.94299,50.03855,0.0
13.94549,50.03928,0.0
13.94605,50.03942,0.0
13.94988,50.03988,0.0
13.95264,50.04032,0.0
13.95325,50.04043,0.0
13.95469,50.04084,0.0
13.95514,50.0409,0.0
13.95691,50.04091,0.0
13.95817,50.04103,0.0
13.95942,50.0412,0.0
13.96211,50.04163,0.0
13.96301,50.04168,0.0
13.96387,50.04177,0.0
13.96431,50.04185,0.0
13.96621,50.04248,0.0
13.96771,50.04309,0.0
13.96864,50.04338,0.0
13.97047,50.04407,0.0
13.97064,50.04445,0.0
13.97082,50.04517,0.0
13.9709,50.0453,0.0
13.97114,50.04549,0.0
13.97182,50.04583,0.0
13.97441,50.04646,0.0
13.97523,50.0468,0.0
13.97572,50.04706,0.0
13.97611,50.0473,0.0
13.97734,50.04831,0.0
13.97772,50.04855,0.0
13.98035,50.0498,0.0
13.98059,50.04995,0.0
13.98225,50.0516,0.0
13.98306,50.05257,0.0
13.98336,50.05274,0.0
13.98688,50.05373,0.0
13.99156,50.05425,0.0
13.99187,50.05432,0.0
13.99267,50.05469,0.0
13.99342,50.05518,0.0
13.99351,50.0553,0.0
13.99348,50.05542,0.0
13.99321,50.05581,0.0
13.99316,50.05619,0.0
13.99319,50.05651,0.0
13.99462,50.05757,0.0
13.99484,50.05781,0.0
13.99507,50.05817,0.0
13.99539,50.05846,0.0
13.99715,50.05966,0.0
13.99764,50.05994,0.0
13.99797,50.06012,0.0
13.99893,50.06047,0.0
13.9992,50.0606,0.0
14.00077,50.06178,0.0
14.00215,50.06276,0.0
14.00309,50.06338,0.0
14.00545,50.0646,0.0
14.00713,50.06551,0.0
14.00823,50.06599,0.0
14.00847,50.0662,0.0
14.00859,50.06638,0.0
14.00878,50.06705,0.0
14.00904,50.06721,0.0
14.0093,50.06731,0.0
14.00961,50.06734,0.0
14.01034,50.0672,0.0
14.01056,50.06722,0.0
14.01084,50.06732,0.0
14.01157,50.06745,0.0
14.01279,50.06775,0.0
14.01298,50.06775,0.0
14.01367,50.06764,0.0
14.01399,50.06763,0.0
14.01444,50.06773,0.0
14.0156,50.06815,0.0
14.01669,50.06848,0.0
14.01799,50.06863,0.0
14.01905,50.06885,0.0
14.01963,50.06908,0.0
14.02087,50.06984,0.0
14.02119,50.07,0.0
14.02164,50.07008,0.0
14.02393,50.07005,0.0
14.02441,50.07008,0.0
14.02468,50.07014,0.0
14.02552,50.07043,0.0
14.02729,50.07068,0.0
14.02899,50.07129,0.0
14.02982,50.07136,0.0
14.03011,50.07141,0.0
14.0308,50.07167,0.0
14.03117,50.07186,0.0
14.03131,50.07198,0.0
14.03164,50.07249,0.0
14.03225,50.07289,0.0
14.03256,50.07328,0.0
14.0328,50.07337,0.0
14.03328,50.07339,0.0
14.03404,50.0735,0.0
14.03511,50.07355,0.0
14.03615,50.0738,0.0
14.03634,50.0738,0.0
14.03646,50.07367,0.0
14.03642,50.07352,0.0
14.03626,50.07325,0.0
14.03588,50.07291,0.0
14.03583,50.07277,0.0
14.03596,50.07261,0.0
14.0362,50.07257,0.0
14.03636,50.07259,0.0
14.0368,50.07273,0.0
14.03712,50.073,0.0
14.03729,50.0731,0.0
14.0386,50.07349,0.0
14.03973,50.07358,0.0
14.04256,50.07335,0.0
14.04368,50.07306,0.0
14.04433,50.07284,0.0
14.04478,50.07273,0.0
14.04493,50.07272,0.0
14.04697,50.07315,0.0
14.04819,50.07368,0.0
14.04889,50.07403,0.0
14.04933,50.0741,0.0
14.04959,50.07407,0.0
14.05063,50.07359,0.0
14.05121,50.07339,0.0
14.05139,50.07335,0.0
14.05189,50.07333,0.0
14.05251,50.07342,0.0
14.05286,50.07353,0.0
14.0532,50.07373,0.0
14.05381,50.07424,0.0
14.05481,50.07551,0.0
14.05635,50.07711,0.0
14.06147,50.07982,0.0
14.06345,50.08084,0.0
14.064,50.08108,0.0
14.06574,50.08167,0.0
14.06757,50.08219,0.0
14.06904,50.08243,0.0
14.07091,50.08267,0.0
14.07325,50.08302,0.0
14.075,50.08302,0.0
14.07601,50.08295,0.0
14.07608,50.08352,0.0
14.07594,50.08442,0.0
14.07595,50.08594,0.0
14.07584,50.0886,0.0
14.07598,50.0901,0.0
14.07608,50.0903,0.0
14.07631,50.09045,0.0
14.07747,50.09069,0.0
14.078,50.09085,0.0
14.08006,50.09175,0.0
14.08821,50.0977,0.0
14.08448,50.10012,0.0
14.08139,50.10211,0.0
14.08042,50.1028,0.0
14.07964,50.1035,0.0
14.07917,50.104,0.0
14.07866,50.10384,0.0
14.07822,50.10379,0.0
14.07782,50.10387,0.0
14.07758,50.10404,0.0
14.07749,50.10416,0.0
14.0775,50.10431,0.0
14.07761,50.10455,0.0
14.07787,50.10469,0.0
14.07845,50.10477,0.0
14.09445,50.10481,0.0
14.10033,50.10478,0.0
14.10586,50.10467,0.0
14.10918,50.10453,0.0
14.11244,50.10435,0.0
14.11598,50.10412,0.0
14.12104,50.10372,0.0
14.12527,50.1033,0.0
14.12944,50.10282,0.0
14.13658,50.10182,0.0
14.13789,50.1016,0.0
14.14961,50.0999,0.0
14.15198,50.09961,0.0
14.15356,50.09947,0.0
14.15579,50.09932,0.0
14.15833,50.09922,0.0
14.16013,50.0992,0.0
14.16381,50.09926,0.0
14.17027,50.09952,0.0
14.17192,50.09956,0.0
14.17409,50.09951,0.0
14.17636,50.09935,0.0
14.17891,50.099,0.0
14.18066,50.09867,0.0
14.18224,50.0983,0.0
14.18363,50.09791,0.0
14.18595,50.09715,0.0
14.18778,50.09646,0.0
14.18915,50.09599,0.0
14.18994,50.09574,0.0
14.19107,50.09546,0.0
14.19306,50.0951,0.0
14.19516,50.09491,0.0
14.19649,50.09487,0.0
14.19769,50.0949,0.0
14.19906,50.095,0.0
14.20013,50.09514,0.0
14.20129,50.09534,0.0
14.20553,50.09628,0.0
14.20714,50.09656,0.0
14.21001,50.09693,0.0
14.21184,50.09704,0.0
14.2135,50.09709,0.0
14.21482,50.09708,0.0
14.21631,50.09703,0.0
14.21842,50.09687,0.0
14.24038,50.09458,0.0
14.24189,50.0944,0.0
14.24355,50.09415,0.0
14.24496,50.09385,0.0
14.24598,50.09359,0.0
14.24811,50.09289,0.0
14.24975,50.09219,0.0
14.25045,50.09185,0.0
14.25524,50.08903,0.0
14.2569,50.0882,0.0
14.25891,50.08735,0.0
14.26135,50.08652,0.0
14.26273,50.08618,0.0
14.26463,50.08576,0.0
14.26587,50.08554,0.0
14.26694,50.0854,0.0
14.26961,50.0852,0.0
14.27227,50.08505,0.0
14.2739,50.08491,0.0
14.27503,50.08477,0.0
14.27707,50.08435,0.0
14.2786,50.08391,0.0
14.27943,50.08361,0.0
14.28113,50.0829,0.0
14.28182,50.08256,0.0
14.28277,50.08204,0.0
14.28347,50.08159,0.0
14.28448,50.08084,0.0
14.28508,50.08034,0.0
14.28564,50.07975,0.0
14.28699,50.0778,0.0
14.28767,50.07695,0.0
14.28829,50.07637,0.0
14.28866,50.07608,0.0
14.28935,50.07564,0.0
14.28999,50.07532,0.0
14.29153,50.07477,0.0
14.29215,50.07461,0.0
14.29298,50.07457,0.0
14.29379,50.07469,0.0
14.29417,50.07484,0.0
14.29442,50.075,0.0
14.29517,50.07569,0.0
14.2961,50.07647,0.0
14.29653,50.07671,0.0
14.29695,50.07687,0.0
14.29729,50.07692,0.0
14.29805,50.07694,0.0
14.30057,50.07675,0.0
14.30133,50.07678,0.0
14.3042,50.07702,0.0
14.30471,50.07703,0.0
14.30591,50.07695,0.0
14.30841,50.07662,0.0
14.31427,50.0757,0.0
14.32649,50.07531,0.0
14.33043,50.07578,0.0
14.33334,50.0762,0.0
14.33402,50.07632,0.0
14.33469,50.07647,0.0
14.33891,50.07757,0.0
14.34015,50.07786,0.0
14.34422,50.07896,0.0
14.3446,50.07845,0.0
14.34478,50.0783,0.0
14.34522,50.07805,0.0
14.34577,50.0779,0.0
14.34672,50.07781,0.0
14.34715,50.07791,0.0
14.34963,50.07823,0.0
14.35069,50.07827,0.0
14.35109,50.07824,0.0
14.352,50.07805,0.0
14.35429,50.07714,0.0
14.35535,50.077,0.0
14.35815,50.07693,0.0
14.36257,50.07731,0.0
14.36316,50.07732,0.0
14.36382,50.07727,0.0
14.36574,50.07692,0.0
14.36666,50.07671,0.0
14.36768,50.07642,0.0
14.36822,50.07633,0.0
14.37062,50.07619,0.0
14.37093,50.07614,0.0
14.37147,50.07595,0.0
14.3718,50.07577,0.0
14.37217,50.07545,0.0
14.37247,50.07505,0.0
14.37257,50.0748,0.0
14.37132,50.07417,0.0
14.37117,50.07394,0.0
14.3712,50.0737,0.0
14.3713,50.07359,0.0
14.3716,50.07343,0.0
14.37242,50.07315,0.0
14.3737,50.07245,0.0
14.37396,50.07234,0.0
14.37423,50.07227,0.0
14.37448,50.07224,0.0
14.3769,50.0726,0.0
14.37809,50.07287,0.0
14.37919,50.07321,0.0
14.37925,50.07326,0.0
14.38026,50.07355,0.0
14.38068,50.07359,0.0
14.381,50.07351,0.0
14.38132,50.07357,0.0
14.38222,50.07354,0.0
14.38289,50.07364,0.0
14.38444,50.07398,0.0
14.38788,50.07497,0.0
14.38905,50.07515,0.0
14.38923,50.07512,0.0
14.39028,50.07509,0.0
14.39087,50.07502,0.0
14.39134,50.07489,0.0
14.39144,50.0748,0.0
14.39144,50.07472,0.0
14.39137,50.07462,0.0
14.39106,50.07455,0.0
14.38941,50.0744,0.0
14.38929,50.0743,0.0
14.38931,50.07415,0.0
14.38959,50.07376,0.0
14.38995,50.07339,0.0
14.39021,50.07335,0.0
14.39108,50.07342,0.0
14.39202,50.07315,0.0
14.39279,50.07329,0.0
14.39624,50.07456,0.0
14.39761,50.0755,0.0
14.39993,50.07682,0.0
14.40194,50.07814,0.0
14.40312,50.07857,0.0
14.40382,50.07877,0.0
14.40404,50.07878,0.0
14.40408,50.07823,0.0
14.40419,50.07771,0.0
14.40418,50.07669,0.0
14.40377,50.07469,0.0
14.40377,50.07408,0.0
14.40785,50.07449,0.0
14.40875,50.07463,0.0
14.40888,50.0747,0.0
14.40898,50.07489,0.0
14.4091,50.0752,0.0
14.40951,50.07539,0.0
14.41328,50.07575,0.0
14.41399,50.07568,0.0
14.41471,50.0756,0.0
14.41763,50.07579,0.0
14.4187,50.07583,0.0
14.4191,50.0758,0.0
14.42073,50.07569,0.0
14.42907,50.07545,0.0
14.4292,50.07364,0.0
14.42927,50.07358,0.0
14.42942,50.07358,0.0
14.4355,50.07448,0.0
14.43696,50.07471,0.0
14.43713,50.07478,0.0
14.43749,50.07498,0.0
14.43762,50.07515,0.0
14.43774,50.0754,0.0
14.43775,50.07553,0.0</coordinates></LineString></Placemark></Document></kml>
